{
  "arch": "x86_64",
  "auth": null,
  "build": "py37_0",
  "build_number": 0,
  "channel": "https://repo.continuum.io/pkgs/main/linux-64",
  "depends": [
    "python >=3.7,<3.8.0a0"
  ],
  "files": [
    "lib/python3.7/site-packages/certifi-2018.04.16-py3.7.egg-info",
    "lib/python3.7/site-packages/certifi/__init__.py",
    "lib/python3.7/site-packages/certifi/__main__.py",
    "lib/python3.7/site-packages/certifi/__pycache__/__init__.cpython-37.pyc",
    "lib/python3.7/site-packages/certifi/__pycache__/__main__.cpython-37.pyc",
    "lib/python3.7/site-packages/certifi/__pycache__/core.cpython-37.pyc",
    "lib/python3.7/site-packages/certifi/cacert.pem",
    "lib/python3.7/site-packages/certifi/core.py"
  ],
  "fn": "certifi-2018.4.16-py37_0.tar.bz2",
  "license": "ISC",
  "link": {
    "source": "/root/anaconda3/pkgs/certifi-2018.4.16-py37_0",
    "type": 1
  },
  "md5": "c535d92609f2d9e92516d08458137875",
  "name": "certifi",
  "noarch": null,
  "platform": "linux",
  "preferred_env": null,
  "priority": 0,
  "schannel": "defaults",
  "size": 145645,
  "subdir": "linux-64",
  "timestamp": 1530212464154,
  "url": "https://repo.continuum.io/pkgs/main/linux-64/certifi-2018.4.16-py37_0.tar.bz2",
  "version": "2018.4.16",
  "with_features_depends": {}
}