{
  "arch": "x86_64",
  "auth": null,
  "build": "py37_0",
  "build_number": 0,
  "channel": "https://repo.continuum.io/pkgs/main/linux-64",
  "depends": [
    "certifi >=2016.09",
    "python >=3.7,<3.8.0a0"
  ],
  "files": [
    "bin/easy_install",
    "lib/python3.7/site-packages/__pycache__/easy_install.cpython-37.pyc",
    "lib/python3.7/site-packages/easy_install.py",
    "lib/python3.7/site-packages/pkg_resources/__init__.py",
    "lib/python3.7/site-packages/pkg_resources/__pycache__/__init__.cpython-37.pyc",
    "lib/python3.7/site-packages/pkg_resources/__pycache__/py31compat.cpython-37.pyc",
    "lib/python3.7/site-packages/pkg_resources/_vendor/__init__.py",
    "lib/python3.7/site-packages/pkg_resources/_vendor/__pycache__/__init__.cpython-37.pyc",
    "lib/python3.7/site-packages/pkg_resources/_vendor/__pycache__/appdirs.cpython-37.pyc",
    "lib/python3.7/site-packages/pkg_resources/_vendor/__pycache__/pyparsing.cpython-37.pyc",
    "lib/python3.7/site-packages/pkg_resources/_vendor/__pycache__/six.cpython-37.pyc",
    "lib/python3.7/site-packages/pkg_resources/_vendor/appdirs.py",
    "lib/python3.7/site-packages/pkg_resources/_vendor/packaging/__about__.py",
    "lib/python3.7/site-packages/pkg_resources/_vendor/packaging/__init__.py",
    "lib/python3.7/site-packages/pkg_resources/_vendor/packaging/__pycache__/__about__.cpython-37.pyc",
    "lib/python3.7/site-packages/pkg_resources/_vendor/packaging/__pycache__/__init__.cpython-37.pyc",
    "lib/python3.7/site-packages/pkg_resources/_vendor/packaging/__pycache__/_compat.cpython-37.pyc",
    "lib/python3.7/site-packages/pkg_resources/_vendor/packaging/__pycache__/_structures.cpython-37.pyc",
    "lib/python3.7/site-packages/pkg_resources/_vendor/packaging/__pycache__/markers.cpython-37.pyc",
    "lib/python3.7/site-packages/pkg_resources/_vendor/packaging/__pycache__/requirements.cpython-37.pyc",
    "lib/python3.7/site-packages/pkg_resources/_vendor/packaging/__pycache__/specifiers.cpython-37.pyc",
    "lib/python3.7/site-packages/pkg_resources/_vendor/packaging/__pycache__/utils.cpython-37.pyc",
    "lib/python3.7/site-packages/pkg_resources/_vendor/packaging/__pycache__/version.cpython-37.pyc",
    "lib/python3.7/site-packages/pkg_resources/_vendor/packaging/_compat.py",
    "lib/python3.7/site-packages/pkg_resources/_vendor/packaging/_structures.py",
    "lib/python3.7/site-packages/pkg_resources/_vendor/packaging/markers.py",
    "lib/python3.7/site-packages/pkg_resources/_vendor/packaging/requirements.py",
    "lib/python3.7/site-packages/pkg_resources/_vendor/packaging/specifiers.py",
    "lib/python3.7/site-packages/pkg_resources/_vendor/packaging/utils.py",
    "lib/python3.7/site-packages/pkg_resources/_vendor/packaging/version.py",
    "lib/python3.7/site-packages/pkg_resources/_vendor/pyparsing.py",
    "lib/python3.7/site-packages/pkg_resources/_vendor/six.py",
    "lib/python3.7/site-packages/pkg_resources/extern/__init__.py",
    "lib/python3.7/site-packages/pkg_resources/extern/__pycache__/__init__.cpython-37.pyc",
    "lib/python3.7/site-packages/pkg_resources/py31compat.py",
    "lib/python3.7/site-packages/setuptools-39.2.0-py3.7.egg-info/PKG-INFO",
    "lib/python3.7/site-packages/setuptools-39.2.0-py3.7.egg-info/SOURCES.txt",
    "lib/python3.7/site-packages/setuptools-39.2.0-py3.7.egg-info/dependency_links.txt",
    "lib/python3.7/site-packages/setuptools-39.2.0-py3.7.egg-info/entry_points.txt",
    "lib/python3.7/site-packages/setuptools-39.2.0-py3.7.egg-info/top_level.txt",
    "lib/python3.7/site-packages/setuptools-39.2.0-py3.7.egg-info/zip-safe",
    "lib/python3.7/site-packages/setuptools/__init__.py",
    "lib/python3.7/site-packages/setuptools/__pycache__/__init__.cpython-37.pyc",
    "lib/python3.7/site-packages/setuptools/__pycache__/archive_util.cpython-37.pyc",
    "lib/python3.7/site-packages/setuptools/__pycache__/build_meta.cpython-37.pyc",
    "lib/python3.7/site-packages/setuptools/__pycache__/config.cpython-37.pyc",
    "lib/python3.7/site-packages/setuptools/__pycache__/dep_util.cpython-37.pyc",
    "lib/python3.7/site-packages/setuptools/__pycache__/depends.cpython-37.pyc",
    "lib/python3.7/site-packages/setuptools/__pycache__/dist.cpython-37.pyc",
    "lib/python3.7/site-packages/setuptools/__pycache__/extension.cpython-37.pyc",
    "lib/python3.7/site-packages/setuptools/__pycache__/glibc.cpython-37.pyc",
    "lib/python3.7/site-packages/setuptools/__pycache__/glob.cpython-37.pyc",
    "lib/python3.7/site-packages/setuptools/__pycache__/launch.cpython-37.pyc",
    "lib/python3.7/site-packages/setuptools/__pycache__/lib2to3_ex.cpython-37.pyc",
    "lib/python3.7/site-packages/setuptools/__pycache__/monkey.cpython-37.pyc",
    "lib/python3.7/site-packages/setuptools/__pycache__/msvc.cpython-37.pyc",
    "lib/python3.7/site-packages/setuptools/__pycache__/namespaces.cpython-37.pyc",
    "lib/python3.7/site-packages/setuptools/__pycache__/package_index.cpython-37.pyc",
    "lib/python3.7/site-packages/setuptools/__pycache__/pep425tags.cpython-37.pyc",
    "lib/python3.7/site-packages/setuptools/__pycache__/py27compat.cpython-37.pyc",
    "lib/python3.7/site-packages/setuptools/__pycache__/py31compat.cpython-37.pyc",
    "lib/python3.7/site-packages/setuptools/__pycache__/py33compat.cpython-37.pyc",
    "lib/python3.7/site-packages/setuptools/__pycache__/py36compat.cpython-37.pyc",
    "lib/python3.7/site-packages/setuptools/__pycache__/sandbox.cpython-37.pyc",
    "lib/python3.7/site-packages/setuptools/__pycache__/site-patch.cpython-37.pyc",
    "lib/python3.7/site-packages/setuptools/__pycache__/ssl_support.cpython-37.pyc",
    "lib/python3.7/site-packages/setuptools/__pycache__/unicode_utils.cpython-37.pyc",
    "lib/python3.7/site-packages/setuptools/__pycache__/version.cpython-37.pyc",
    "lib/python3.7/site-packages/setuptools/__pycache__/wheel.cpython-37.pyc",
    "lib/python3.7/site-packages/setuptools/__pycache__/windows_support.cpython-37.pyc",
    "lib/python3.7/site-packages/setuptools/_vendor/__init__.py",
    "lib/python3.7/site-packages/setuptools/_vendor/__pycache__/__init__.cpython-37.pyc",
    "lib/python3.7/site-packages/setuptools/_vendor/__pycache__/pyparsing.cpython-37.pyc",
    "lib/python3.7/site-packages/setuptools/_vendor/__pycache__/six.cpython-37.pyc",
    "lib/python3.7/site-packages/setuptools/_vendor/packaging/__about__.py",
    "lib/python3.7/site-packages/setuptools/_vendor/packaging/__init__.py",
    "lib/python3.7/site-packages/setuptools/_vendor/packaging/__pycache__/__about__.cpython-37.pyc",
    "lib/python3.7/site-packages/setuptools/_vendor/packaging/__pycache__/__init__.cpython-37.pyc",
    "lib/python3.7/site-packages/setuptools/_vendor/packaging/__pycache__/_compat.cpython-37.pyc",
    "lib/python3.7/site-packages/setuptools/_vendor/packaging/__pycache__/_structures.cpython-37.pyc",
    "lib/python3.7/site-packages/setuptools/_vendor/packaging/__pycache__/markers.cpython-37.pyc",
    "lib/python3.7/site-packages/setuptools/_vendor/packaging/__pycache__/requirements.cpython-37.pyc",
    "lib/python3.7/site-packages/setuptools/_vendor/packaging/__pycache__/specifiers.cpython-37.pyc",
    "lib/python3.7/site-packages/setuptools/_vendor/packaging/__pycache__/utils.cpython-37.pyc",
    "lib/python3.7/site-packages/setuptools/_vendor/packaging/__pycache__/version.cpython-37.pyc",
    "lib/python3.7/site-packages/setuptools/_vendor/packaging/_compat.py",
    "lib/python3.7/site-packages/setuptools/_vendor/packaging/_structures.py",
    "lib/python3.7/site-packages/setuptools/_vendor/packaging/markers.py",
    "lib/python3.7/site-packages/setuptools/_vendor/packaging/requirements.py",
    "lib/python3.7/site-packages/setuptools/_vendor/packaging/specifiers.py",
    "lib/python3.7/site-packages/setuptools/_vendor/packaging/utils.py",
    "lib/python3.7/site-packages/setuptools/_vendor/packaging/version.py",
    "lib/python3.7/site-packages/setuptools/_vendor/pyparsing.py",
    "lib/python3.7/site-packages/setuptools/_vendor/six.py",
    "lib/python3.7/site-packages/setuptools/archive_util.py",
    "lib/python3.7/site-packages/setuptools/build_meta.py",
    "lib/python3.7/site-packages/setuptools/cli-32.exe",
    "lib/python3.7/site-packages/setuptools/cli-64.exe",
    "lib/python3.7/site-packages/setuptools/cli.exe",
    "lib/python3.7/site-packages/setuptools/command/__init__.py",
    "lib/python3.7/site-packages/setuptools/command/__pycache__/__init__.cpython-37.pyc",
    "lib/python3.7/site-packages/setuptools/command/__pycache__/alias.cpython-37.pyc",
    "lib/python3.7/site-packages/setuptools/command/__pycache__/bdist_egg.cpython-37.pyc",
    "lib/python3.7/site-packages/setuptools/command/__pycache__/bdist_rpm.cpython-37.pyc",
    "lib/python3.7/site-packages/setuptools/command/__pycache__/bdist_wininst.cpython-37.pyc",
    "lib/python3.7/site-packages/setuptools/command/__pycache__/build_clib.cpython-37.pyc",
    "lib/python3.7/site-packages/setuptools/command/__pycache__/build_ext.cpython-37.pyc",
    "lib/python3.7/site-packages/setuptools/command/__pycache__/build_py.cpython-37.pyc",
    "lib/python3.7/site-packages/setuptools/command/__pycache__/develop.cpython-37.pyc",
    "lib/python3.7/site-packages/setuptools/command/__pycache__/dist_info.cpython-37.pyc",
    "lib/python3.7/site-packages/setuptools/command/__pycache__/easy_install.cpython-37.pyc",
    "lib/python3.7/site-packages/setuptools/command/__pycache__/egg_info.cpython-37.pyc",
    "lib/python3.7/site-packages/setuptools/command/__pycache__/install.cpython-37.pyc",
    "lib/python3.7/site-packages/setuptools/command/__pycache__/install_egg_info.cpython-37.pyc",
    "lib/python3.7/site-packages/setuptools/command/__pycache__/install_lib.cpython-37.pyc",
    "lib/python3.7/site-packages/setuptools/command/__pycache__/install_scripts.cpython-37.pyc",
    "lib/python3.7/site-packages/setuptools/command/__pycache__/py36compat.cpython-37.pyc",
    "lib/python3.7/site-packages/setuptools/command/__pycache__/register.cpython-37.pyc",
    "lib/python3.7/site-packages/setuptools/command/__pycache__/rotate.cpython-37.pyc",
    "lib/python3.7/site-packages/setuptools/command/__pycache__/saveopts.cpython-37.pyc",
    "lib/python3.7/site-packages/setuptools/command/__pycache__/sdist.cpython-37.pyc",
    "lib/python3.7/site-packages/setuptools/command/__pycache__/setopt.cpython-37.pyc",
    "lib/python3.7/site-packages/setuptools/command/__pycache__/test.cpython-37.pyc",
    "lib/python3.7/site-packages/setuptools/command/__pycache__/upload.cpython-37.pyc",
    "lib/python3.7/site-packages/setuptools/command/__pycache__/upload_docs.cpython-37.pyc",
    "lib/python3.7/site-packages/setuptools/command/alias.py",
    "lib/python3.7/site-packages/setuptools/command/bdist_egg.py",
    "lib/python3.7/site-packages/setuptools/command/bdist_rpm.py",
    "lib/python3.7/site-packages/setuptools/command/bdist_wininst.py",
    "lib/python3.7/site-packages/setuptools/command/build_clib.py",
    "lib/python3.7/site-packages/setuptools/command/build_ext.py",
    "lib/python3.7/site-packages/setuptools/command/build_py.py",
    "lib/python3.7/site-packages/setuptools/command/develop.py",
    "lib/python3.7/site-packages/setuptools/command/dist_info.py",
    "lib/python3.7/site-packages/setuptools/command/easy_install.py",
    "lib/python3.7/site-packages/setuptools/command/egg_info.py",
    "lib/python3.7/site-packages/setuptools/command/install.py",
    "lib/python3.7/site-packages/setuptools/command/install_egg_info.py",
    "lib/python3.7/site-packages/setuptools/command/install_lib.py",
    "lib/python3.7/site-packages/setuptools/command/install_scripts.py",
    "lib/python3.7/site-packages/setuptools/command/launcher manifest.xml",
    "lib/python3.7/site-packages/setuptools/command/py36compat.py",
    "lib/python3.7/site-packages/setuptools/command/register.py",
    "lib/python3.7/site-packages/setuptools/command/rotate.py",
    "lib/python3.7/site-packages/setuptools/command/saveopts.py",
    "lib/python3.7/site-packages/setuptools/command/sdist.py",
    "lib/python3.7/site-packages/setuptools/command/setopt.py",
    "lib/python3.7/site-packages/setuptools/command/test.py",
    "lib/python3.7/site-packages/setuptools/command/upload.py",
    "lib/python3.7/site-packages/setuptools/command/upload_docs.py",
    "lib/python3.7/site-packages/setuptools/config.py",
    "lib/python3.7/site-packages/setuptools/dep_util.py",
    "lib/python3.7/site-packages/setuptools/depends.py",
    "lib/python3.7/site-packages/setuptools/dist.py",
    "lib/python3.7/site-packages/setuptools/extension.py",
    "lib/python3.7/site-packages/setuptools/extern/__init__.py",
    "lib/python3.7/site-packages/setuptools/extern/__pycache__/__init__.cpython-37.pyc",
    "lib/python3.7/site-packages/setuptools/glibc.py",
    "lib/python3.7/site-packages/setuptools/glob.py",
    "lib/python3.7/site-packages/setuptools/gui-32.exe",
    "lib/python3.7/site-packages/setuptools/gui-64.exe",
    "lib/python3.7/site-packages/setuptools/gui.exe",
    "lib/python3.7/site-packages/setuptools/launch.py",
    "lib/python3.7/site-packages/setuptools/lib2to3_ex.py",
    "lib/python3.7/site-packages/setuptools/monkey.py",
    "lib/python3.7/site-packages/setuptools/msvc.py",
    "lib/python3.7/site-packages/setuptools/namespaces.py",
    "lib/python3.7/site-packages/setuptools/package_index.py",
    "lib/python3.7/site-packages/setuptools/pep425tags.py",
    "lib/python3.7/site-packages/setuptools/py27compat.py",
    "lib/python3.7/site-packages/setuptools/py31compat.py",
    "lib/python3.7/site-packages/setuptools/py33compat.py",
    "lib/python3.7/site-packages/setuptools/py36compat.py",
    "lib/python3.7/site-packages/setuptools/sandbox.py",
    "lib/python3.7/site-packages/setuptools/script (dev).tmpl",
    "lib/python3.7/site-packages/setuptools/script.tmpl",
    "lib/python3.7/site-packages/setuptools/site-patch.py",
    "lib/python3.7/site-packages/setuptools/ssl_support.py",
    "lib/python3.7/site-packages/setuptools/unicode_utils.py",
    "lib/python3.7/site-packages/setuptools/version.py",
    "lib/python3.7/site-packages/setuptools/wheel.py",
    "lib/python3.7/site-packages/setuptools/windows_support.py"
  ],
  "fn": "setuptools-39.2.0-py37_0.tar.bz2",
  "license": "MIT",
  "license_family": "MIT",
  "link": {
    "source": "/root/anaconda3/pkgs/setuptools-39.2.0-py37_0",
    "type": 1
  },
  "md5": "9dc818e5acfa239cb3524fa2840910ac",
  "name": "setuptools",
  "noarch": null,
  "platform": "linux",
  "preferred_env": null,
  "priority": 0,
  "schannel": "defaults",
  "size": 563664,
  "subdir": "linux-64",
  "timestamp": 1530212487933,
  "url": "https://repo.continuum.io/pkgs/main/linux-64/setuptools-39.2.0-py37_0.tar.bz2",
  "version": "39.2.0",
  "with_features_depends": {}
}