{
  "arch": "x86_64",
  "auth": null,
  "build": "h84994c4_0",
  "build_number": 0,
  "channel": "https://repo.continuum.io/pkgs/main/linux-64",
  "depends": [
    "libedit >=3.1.20170329,<3.2.0a0",
    "libgcc-ng >=7.2.0"
  ],
  "files": [
    "bin/sqlite3",
    "include/sqlite3.h",
    "include/sqlite3ext.h",
    "lib/libsqlite3.a",
    "lib/libsqlite3.la",
    "lib/libsqlite3.so",
    "lib/libsqlite3.so.0",
    "lib/libsqlite3.so.0.8.6",
    "lib/pkgconfig/sqlite3.pc"
  ],
  "fn": "sqlite-3.24.0-h84994c4_0.tar.bz2",
  "license": "Public-Domain (http://www.sqlite.org/copyright.html)",
  "link": {
    "source": "/root/anaconda3/pkgs/sqlite-3.24.0-h84994c4_0",
    "type": 1
  },
  "md5": "8d9545311f3a1fa6cdbab2e6c1351065",
  "name": "sqlite",
  "noarch": null,
  "platform": "linux",
  "preferred_env": null,
  "priority": 0,
  "schannel": "defaults",
  "size": 1859563,
  "subdir": "linux-64",
  "timestamp": 1529358396807,
  "url": "https://repo.continuum.io/pkgs/main/linux-64/sqlite-3.24.0-h84994c4_0.tar.bz2",
  "version": "3.24.0",
  "with_features_depends": {}
}